<svg xmlns="http://www.w3.org/2000/svg" xmlns:xlink="http://www.w3.org/1999/xlink"
     viewBox="5013.793 -12104.207 24.414 24.414">
    <defs>
        <style>
            .close-iconcls-1 {
                fill: none;
                stroke: #8A9999;
                stroke-width: 2px;
            }
        </style>
    </defs>
    <g transform="translate(3817 -12153)">
        <line class="close-iconcls-1" x2="23" y2="23" transform="translate(1197.5 49.5)"/>
        <line class="close-iconcls-1" y1="23" x2="23" transform="translate(1197.5 49.5)"/>
    </g>
</svg>